﻿Groupe de la nomenclature INCA 2,Libellé,Type,Date,Région,Vague,Unité,"Sulfites   (E220, E221, E222, E223, E224, E226, E227 et E228)",Nitrites  (E249-250),Rocou  (E160b),Acide tartrique  (E334)
Boissons fraîches sans alcool,jus d'ananas à base de concentré,N,2007,99,1,mg/l,ND (1),NR,NR,NR
Boissons fraîches sans alcool,jus de fruits multivitamines 100% pur jus,N,2007,99,1,mg/l,ND (1),NR,NR,NR
Boissons fraîches sans alcool,jus d'orange à base de concentré pasteurisé,N,2007,99,1,mg/l,ND (1),NR,NR,NR
Boissons fraîches sans alcool,jus d'orange frais non sucré,N,2007,99,1,mg/l,ND (1),NR,NR,NR
Boissons fraîches sans alcool,jus de pomme à base de concentré pasteurisé,N,2007,99,1,mg/l,ND (1),NR,NR,NR
Biscuits sucrés ou salés et barres,pomme de terre chips salées,R,2007,1,1,mg/kg,NQ (5),NR,"ND (0,25)",NR
Biscuits sucrés ou salés et barres,pomme de terre chips salées,R,2007,7,1,mg/kg,ND (1),NR,"ND (2,5)",NR
Biscuits sucrés ou salés et barres,pomme de terre chips salées,R,2007,34,1,mg/kg,ND (1),NR,"ND (2,5)",NR
Biscuits sucrés ou salés et barres,pomme de terre chips salées,R,2008,1,2,mg/kg ,ND (1),NR,"ND (2,5)",NR
Biscuits sucrés ou salés et barres,pomme de terre chips salées,R,2008,2,1,mg/kg,NQ (5),NR,"ND (0,25)",NR
Biscuits sucrés ou salés et barres,pomme de terre chips salées,R,2008,2,2,mg/kg ,ND (1),NR,"ND (2,5)",NR
Biscuits sucrés ou salés et barres,pomme de terre chips salées,R,2008,5,1,mg/kg,ND (1),NR,"ND (2,5)",NR
Biscuits sucrés ou salés et barres,pomme de terre chips salées,R,2008,6,1,mg/kg,ND (1),NR,"ND (0,25)",NR
Biscuits sucrés ou salés et barres,pomme de terre chips salées,R,2008,7,2,mg/kg,ND (1),NR,"ND (0,25)",NR
Biscuits sucrés ou salés et barres,pomme de terre chips salées,R,2008,8,1,mg/kg,ND (1),NR,"ND (0,25)",NR
Biscuits sucrés ou salés et barres,pomme de terre chips salées,R,2008,8,2,mg/kg ,ND (1),NR,"ND (2,5)",NR
Biscuits sucrés ou salés et barres,pomme de terre chips salées,R,2008,9,1,mg/kg,ND (1),NR,"ND (0,25)",NR
Biscuits sucrés ou salés et barres,pomme de terre chips salées,R,2008,9,2,mg/kg,ND (1),NR,"ND (2,5)",NR
Biscuits sucrés ou salés et barres,pomme de terre chips salées,R,2008,34,2,mg/kg,ND (1),NR,"ND (0,25)",NR
Biscuits sucrés ou salés et barres,pomme de terre chips salées,R,2009,5,2,mg/kg,ND (1),NR,"ND (2,5)",NR
Biscuits sucrés ou salés et barres,pomme de terre chips salées,R,2009,6,2,mg/kg ,ND (1),NR,"ND (2,5)",NR
Boissons alcoolisées,champagne,N,2007,99,1,mg/l,58,NR,NR,NR
Boissons alcoolisées,champagne,N,2008,99,2,mg/l,48,NR,NR,NR
Charcuterie,foie gras,R,2007,34,1,mg/kg,NR,5.5,NR,NR
Charcuterie,foie gras,R,2008,34,2,mg/kg,NR,NQ (5),NR,NR
Crustacés et mollusques,crevette,R,2007,1,1,mg/kg,84.1,NR,NR,NR
Crustacés et mollusques,crevette,R,2007,7,1,mg/kg,53.9,NR,NR,NR
Crustacés et mollusques,crevette,R,2007,34,1,mg/kg,47.2,NR,NR,NR
Crustacés et mollusques,crevette,R,2008,1,2,mg/kg ,ND (3),NR,NR,NR
Crustacés et mollusques,crevette,R,2008,2,1,mg/kg,32.9,NR,NR,NR
Crustacés et mollusques,crevette,R,2008,2,2,mg/kg ,15.8,NR,NR,NR
Crustacés et mollusques,crevette,R,2008,5,1,mg/kg ,47.5,NR,NR,NR
Crustacés et mollusques,crevette,R,2008,6,1,mg/kg,75.6,NR,NR,NR
Crustacés et mollusques,crevette,R,2008,7,2,mg/kg,10.8,NR,NR,NR
Crustacés et mollusques,crevette,R,2008,8,1,mg/kg,81.3,NR,NR,NR
Crustacés et mollusques,crevette,R,2008,8,2,mg/kg ,54.6,NR,NR,NR
Crustacés et mollusques,crevette,R,2008,9,1,mg/kg,91.3,NR,NR,NR
Crustacés et mollusques,crevette,R,2008,9,2,mg/kg ,72,NR,NR,NR
Crustacés et mollusques,crevette,R,2008,34,2,mg/kg,39.2,NR,NR,NR
Crustacés et mollusques,crevette,R,2009,5,2,mg/kg ,66.3,NR,NR,NR
Crustacés et mollusques,crevette,R,2009,6,2,mg/kg ,96.8,NR,NR,NR
Fromages,fromage à pâte ferme enrobé de cire,N,2007,99,1,mg/kg,NR,NR,"ND (0,25)",NR
Fromages,fromage à pâte ferme enrobé de cire,N,2008,99,2,mg/kg,NR,NR,"ND (0,25)",NR
Margarine,margarine au tournesol,N,2007,99,1,mg/kg,NR,NR,ND (5),NR
Margarine,margarine au tournesol,N,2008,99,2,mg/kg,NR,NR,ND (5),NR
Boissons fraîches sans alcool,limonade ou clear lime sucrée,N,2007,99,1,mg/l,ND (1),NR,NR,NR
Boissons fraîches sans alcool,limonade ou clear lime sucrée,N,2008,99,2,mg/l,ND (1),NR,NR,NR
Boissons fraîches sans alcool,sirop aux extraits de fruits,N,2007,99,1,mg/l,ND (1),NR,NR,NR
Boissons fraîches sans alcool,sirop aux extraits de fruits,N,2008,99,2,mg/l,ND (1),NR,NR,NR
Boissons fraîches sans alcool,boisson aux extraits de thé aromatisé,N,2007,99,1,mg/l,ND (1),NR,NR,NR
Boissons fraîches sans alcool,boisson aux extraits de thé aromatisé,N,2008,99,2,mg/l,ND (1),NR,NR,NR
Boissons fraîches sans alcool,boisson gazeuse à l'orange avec pulpe sucrée,N,2007,99,1,mg/l,ND (1),NR,NR,NR
Boissons fraîches sans alcool,boisson gazeuse à l'orange avec pulpe sucrée,N,2008,99,2,mg/l,ND (1),NR,NR,NR
Boissons fraîches sans alcool,boisson plate à l'orange,N,2007,99,1,mg/l,ND (1),NR,NR,NR
Boissons fraîches sans alcool,boisson plate à l'orange,N,2008,99,2,mg/l,ND (1),NR,NR,NR
Pâtisseries et gâteaux,gâteau au chocolat,N,2007,99,1,mg/kg,ND (4),NR,NR,NQ (40)
Pâtisseries et gâteaux,gâteau au chocolat,N,2008,99,2,mg/kg,ND (4),NR,NR,ND (30)
Pâtisseries et gâteaux,cake aux fruits confits,N,2007,99,1,mg/kg,4,NR,NR,ND (30)
Pâtisseries et gâteaux,cake aux fruits confits,N,2008,99,2,mg/kg,ND (4),NR,NR,ND (30)
Biscuits sucrés ou salés et barres,barquette à la pulpe de fruit,N,2007,99,1,mg/kg,ND (4),NR,NR,480
Biscuits sucrés ou salés et barres,barquette à la pulpe de fruit,N,2008,99,2,mg/kg,ND (4),NR,NR,348
Plats composés,cassoulet,R,2008,5,1,mg/kg,NR,ND (2),NR,NR
Plats composés,cassoulet,R,2009,5,2,mg/kg,NR,ND (2),NR,NR
Plats composés,choucroute,R,2008,5,1,mg/kg,NR,NQ (5),NR,NR
Plats composés,choucroute,R,2008,9,2,mg/kg,NR,ND (2),NR,NR
Plats composés,choucroute,R,2009,5,2,mg/kg,NR,ND (2),NR,NR
Plats composés,choucroute,R,2009,6,2,mg/kg,NR,NQ (5),NR,NR
Plats composés,hachis parmentier,R,2007,1,1,mg/kg,NQ (5),ND (1),NR,NR
Plats composés,hachis parmentier,R,2007,34,1,mg/kg,ND (1),ND (2),NR,NR
Plats composés,hachis parmentier,R,2008,1,2,mg/kg ,ND (1),ND (1),NR,NR
Plats composés,hachis parmentier,R,2008,2,1,mg/kg,NQ (5),ND (1),NR,NR
Plats composés,hachis parmentier,R,2008,2,2,mg/kg ,NQ (5),ND (1),NR,NR
Plats composés,hachis parmentier,R,2008,5,1,mg/kg,NQ (5),ND (1),NR,NR
Plats composés,hachis parmentier,R,2008,9,1,mg/kg,ND (1),ND (1),NR,NR
Plats composés,hachis parmentier,R,2008,9,2,mg/kg,NQ (5),ND (1),NR,NR
Plats composés,hachis parmentier,R,2008,34,2,mg/kg,ND (1),ND (1),NR,NR
Plats composés,hachis parmentier,R,2009,5,2,mg/kg,ND (1),ND (1),NR,NR
Plats composés,couscous,R,2007,7,1,mg/kg,NR,ND (2),NR,NR
Plats composés,couscous,R,2007,34,1,mg/kg,NR,ND (2),NR,NR
Plats composés,couscous,R,2008,6,1,mg/kg,NR,ND (1),NR,NR
Plats composés,couscous,R,2008,5,1,mg/kg,NR,ND (1),NR,NR
Plats composés,couscous,R,2008,7,2,mg/kg,NR,ND (1),NR,NR
Plats composés,couscous,R,2008,9,1,mg/kg,NR,ND (1),NR,NR
Plats composés,couscous,R,2008,9,2,mg/kg,NR,ND (1),NR,NR
Plats composés,couscous,R,2008,34,2,mg/kg,NR,ND (1),NR,NR
Plats composés,couscous,R,2009,5,2,mg/kg,NR,ND (1),NR,NR
Plats composés,couscous,R,2009,6,2,mg/kg ,NR,ND (1),NR,NR
Plats composés,cordon bleu de volaille,R,2007,34,1,mg/kg,NR,NQ (5),"ND (0,25)",NR
Plats composés,cordon bleu de volaille,R,2008,34,2,mg/kg,NR,NQ (5),"ND (0,25)",NR
Plats composés,taboulé,R,2007,34,1,mg/kg,NQ (5),NR,NR,300
Plats composés,taboulé,R,2008,6,1,mg/kg,ND (1),NR,NR,260
Plats composés,taboulé,R,2008,8,1,mg/kg,ND (1),NR,NR,660
Plats composés,taboulé,R,2008,8,2,mg/kg ,7,NR,NR,610
Plats composés,taboulé,R,2008,34,2,mg/kg,ND (1),NR,NR,210
Plats composés,taboulé,R,2009,6,2,mg/kg ,ND (1),NR,NR,480
Charcuterie,merguez,R,2007,7,1,mg/kg,NR,ND (2),NR,NR
Charcuterie,merguez,R,2008,2,1,mg/kg,NR,ND (2),NR,NR
Charcuterie,merguez,R,2008,2,2,mg/kg,NR,ND (2),NR,NR
Charcuterie,merguez,R,2008,5,1,mg/kg,NR,ND (2),NR,NR
Charcuterie,merguez,R,2008,7,2,mg/kg,NR,ND (2),NR,NR
Charcuterie,merguez,R,2009,5,2,mg/kg,NR,ND (2),NR,NR
Charcuterie,saucisse de strasbourg,R,2008,2,1,mg/kg,NR,5.3,NR,NR
Charcuterie,saucisse de strasbourg,R,2008,2,2,mg/kg,NR,NQ (5),NR,NR
Charcuterie,saucisse de strasbourg,R,2008,5,1,mg/kg,NR,NQ (5),NR,NR
Charcuterie,saucisse de strasbourg,R,2008,8,1,mg/kg,NR,ND (2),NR,NR
Charcuterie,saucisse de strasbourg,R,2008,8,2,mg/kg,NR,NQ (5),NR,NR
Charcuterie,saucisse de strasbourg,R,2008,34,2,mg/kg,NR,NQ (5),NR,NR
Charcuterie,saucisse de strasbourg,R,2009,5,2,mg/kg,NR,NQ (5),NR,NR
Chocolat,barre chocolatée biscuitée,N,2007,99,1,mg/l,NR,NR,NR,ND (50)
Chocolat,barre chocolatée biscuitée,N,2008,99,2,mg/kg,NR,NR,NR,ND (300)
Sucres et dérivés,bonbons tout type,N,2007,99,1,mg/kg,NR,NR,"ND (0,25)",NR
Sucres et dérivés,bonbons tout type,N,2008,99,2,mg/kg,ND (1),NR,NR,ND (10)
Chocolat,chocolat au lait,N,2007,99,1,mg/l,NR,NR,NR,ND (50)
Chocolat,chocolat au lait,N,2008,99,2,mg/kg,NR,NR,NR,ND (300)
Chocolat,chocolat au lait aux fruits secs,N,2007,99,1,mg/l,NR,NR,NR,ND (50)
Chocolat,chocolat au lait aux fruits secs,N,2008,99,2,mg/kg,NR,NR,NR,ND (300)
Chocolat,pâte à tartiner chocolatée,N,2007,99,1,mg/kg,ND (1),NR,NR,NR
Chocolat,pâte à tartiner chocolatée,N,2007,99,1,mg/l,NR,NR,NR,ND (50)
Chocolat,pâte à tartiner chocolatée,N,2008,99,2,mg/kg,NR,NR,NR,ND (300)
Biscuits sucrés ou salés et barres,biscuit apéritif,N,2007,99,1,mg/kg,7,NR,NR,ND (30)
Biscuits sucrés ou salés et barres,biscuit apéritif,N,2008,99,2,mg/kg,ND (4),NR,NR,ND (30)
Biscuits sucrés ou salés et barres,biscuit sec au chocolat,N,2007,99,1,mg/kg,ND (4),NR,NR,NQ (40)
Biscuits sucrés ou salés et barres,biscuit sec au chocolat,N,2008,99,2,mg/kg,ND (4),NR,NR,ND (30)
Biscuits sucrés ou salés et barres,biscuit sec,N,2007,99,1,mg/kg,6,NR,NR,55
Biscuits sucrés ou salés et barres,biscuit sec,N,2008,99,2,mg/kg,ND (4),NR,NR,41
Pâtisseries et gâteaux,moelleux au chocolat,N,2007,99,1,mg/kg,ND (4),NR,NR,NQ (40)
Pâtisseries et gâteaux,moelleux au chocolat,N,2008,99,2,mg/kg,ND (4),NR,NR,ND (30)
Pâtisseries et gâteaux,gateau moelleux fourré ou non,N,2007,99,1,mg/kg,ND (4),NR,NR,NQ (40)
Pâtisseries et gâteaux,gateau moelleux fourré ou non,N,2008,99,2,mg/kg,ND (4),NR,NR,ND (30)
Pâtisseries et gâteaux,"chou, chouquette",N,2007,99,1,mg/kg,ND (4),NR,NR,NQ (40)
Pâtisseries et gâteaux,"chou, chouquette",N,2008,99,2,mg/kg,ND (4),NR,NR,ND (30)
Pâtisseries et gâteaux,crêpe sucrée,N,2007,99,1,mg/kg,ND (4),NR,NR,NQ (40)
Pâtisseries et gâteaux,crêpe sucrée,N,2008,99,2,mg/kg,ND (4),NR,NR,ND (30)
Pâtisseries et gâteaux,crêpe ou gaufre,N,2007,99,1,mg/kg,ND (4),NR,NR,ND (30)
Pâtisseries et gâteaux,crêpe ou gaufre,N,2008,99,2,mg/kg,ND (4),NR,NR,ND (30)
Pâtisseries et gâteaux,gâteau,N,2007,99,1,mg/kg,ND (4),NR,NR,270
Pâtisseries et gâteaux,gâteau,N,2008,99,2,mg/kg,ND (4),NR,NR,225
Pâtisseries et gâteaux,tarte ou tartelette,N,2007,99,1,mg/kg,ND (4),NR,NR,NQ (40)
Pâtisseries et gâteaux,tarte ou tartelette,N,2008,99,2,mg/kg,ND (4),NR,NR,ND (30)
Fromages,fromage fondu,N,2007,99,1,mg/kg,NR,NR,"ND (0,25)",NR
Fromages,fromage fondu,N,2008,99,2,mg/kg,NR,NR,"ND (0,25)",NR
Fromages,camembert et apparenté,N,2007,99,1,mg/kg,NR,NR,"ND (0,25)",NR
Fromages,camembert et apparenté,N,2008,99,2,mg/kg,NR,NR,"ND (0,25)",NR
Fromages,"cantal, morbier et apparenté",N,2007,99,1,mg/kg,NR,NR,"ND (0,25)",NR
Fromages,"cantal, morbier et apparenté",N,2008,99,2,mg/kg,NR,NR,"ND (0,25)",NR
Fromages,chèvre,N,2007,99,1,mg/kg,NR,NR,"ND (0,25)",NR
Fromages,chèvre,N,2008,99,2,mg/kg,NR,NR,"ND (0,25)",NR
Fromages,edam et apparenté,N,2007,99,1,mg/kg,NR,NR,4.5,NR
Fromages,edam et apparenté,N,2008,99,2,mg/kg,NR,NR,12.2,NR
Fromages,gruyère,N,2007,99,1,mg/kg,NR,NR,"ND (0,25)",NR
Fromages,gruyère,N,2008,99,2,mg/kg,NR,NR,"ND (0,25)",NR
Margarine,margarine allégée,N,2007,99,1,mg/kg,NR,NR,ND (5),NR
Margarine,margarine allégée,N,2008,99,2,mg/kg,NR,NR,ND (5),NR
Viande,bœuf steak,R,2007,1,1,mg/kg,ND (1),NR,NR,NR
Viande,bœuf steak,R,2007,7,1,mg/kg,NQ (5),NR,NR,NR
Viande,bœuf steak,R,2007,34,1,mg/kg,NQ (5),NR,NR,NR
Viande,bœuf steak,R,2008,1,2,mg/kg ,ND (1),NR,NR,NR
Viande,bœuf steak,R,2008,2,1,mg/kg,NQ (5),NR,NR,NR
Viande,bœuf steak,R,2008,2,2,mg/kg ,ND (1),NR,NR,NR
Viande,bœuf steak,R,2008,5,1,mg/kg,NQ (5),NR,NR,NR
Viande,bœuf steak,R,2008,6,1,mg/kg,ND (1),NR,NR,NR
Viande,bœuf steak,R,2008,7,2,mg/kg,ND (1),NR,NR,NR
Viande,bœuf steak,R,2008,8,1,mg/kg,ND (1),NR,NR,NR
Viande,bœuf steak,R,2008,8,2,mg/kg ,ND (1),NR,NR,NR
Viande,bœuf steak,R,2008,9,1,mg/kg,ND (1),NR,NR,NR
Viande,bœuf steak,R,2008,9,2,mg/kg,NQ (5),NR,NR,NR
Viande,bœuf steak,R,2008,34,2,mg/kg,ND (1),NR,NR,NR
Viande,bœuf steak,R,2009,5,2,mg/kg,ND (1),NR,NR,NR
Viande,bœuf steak,R,2009,6,2,mg/kg ,ND (1),NR,NR,NR
Viande,côte de porc,R,2007,1,1,mg/kg,ND (1),NR,NR,NR
Viande,côte de porc,R,2007,34,1,mg/kg,NQ (5),NR,NR,NR
Viande,côte de porc,R,2008,1,2,mg/kg ,ND (1),NR,NR,NR
Viande,côte de porc,R,2008,2,1,mg/kg,ND (1),NR,NR,NR
Viande,côte de porc,R,2008,2,2,mg/kg ,ND (1),NR,NR,NR
Viande,côte de porc,R,2008,5,1,mg/kg,NQ (5),NR,NR,NR
Viande,côte de porc,R,2008,6,1,mg/kg,ND (1),NR,NR,NR
Viande,côte de porc,R,2008,7,2,mg/kg,ND (1),NR,NR,NR
Viande,côte de porc,R,2008,8,1,mg/kg,ND (1),NR,NR,NR
Viande,côte de porc,R,2008,8,2,mg/kg ,ND (1),NR,NR,NR
Viande,côte de porc,R,2008,9,1,mg/kg,ND (1),NR,NR,NR
Viande,côte de porc,R,2008,9,2,mg/kg,ND (1),NR,NR,NR
Viande,côte de porc,R,2008,34,2,mg/kg,ND (1),NR,NR,NR
Viande,côte de porc,R,2009,5,2,mg/kg,NQ (5),NR,NR,NR
Viande,côte de porc,R,2009,6,2,mg/kg ,ND (1),NR,NR,NR
Viande,rôti de porc,R,2007,1,1,mg/kg,NQ (5),NR,NR,NR
Viande,rôti de porc,R,2007,34,1,mg/kg,ND (1),NR,NR,NR
Viande,rôti de porc,R,2008,1,2,mg/kg ,ND (1),NR,NR,NR
Viande,rôti de porc,R,2008,2,1,mg/kg,NQ (5),NR,NR,NR
Viande,rôti de porc,R,2008,2,2,mg/kg ,ND (1),NR,NR,NR
Viande,rôti de porc,R,2008,5,1,mg/kg,ND (1),NR,NR,NR
Viande,rôti de porc,R,2008,6,1,mg/kg,ND (1),NR,NR,NR
Viande,rôti de porc,R,2008,7,2,mg/kg,ND (1),NR,NR,NR
Viande,rôti de porc,R,2008,8,1,mg/kg,ND (1),NR,NR,NR
Viande,rôti de porc,R,2008,8,2,mg/kg ,ND (1),NR,NR,NR
Viande,rôti de porc,R,2008,9,1,mg/kg,ND (1),NR,NR,NR
Viande,rôti de porc,R,2008,9,2,mg/kg,NQ (5),NR,NR,NR
Viande,rôti de porc,R,2008,34,2,mg/kg,ND (1),NR,NR,NR
Viande,rôti de porc,R,2009,5,2,mg/kg,NQ (5),NR,NR,NR
Viande,rôti de porc,R,2009,6,2,mg/kg ,NQ (5),NR,NR,NR
Abats,foie,R,2007,34,1,mg/kg,NR,ND (2),NR,NR
Abats,foie,R,2008,6,1,mg/kg,NR,ND (2),NR,NR
Abats,foie,R,2008,8,1,mg/kg,NR,ND (2),NR,NR
Abats,foie,R,2008,8,2,mg/kg,NR,ND (2),NR,NR
Abats,foie,R,2008,9,1,mg/kg,NR,ND (2),NR,NR
Abats,foie,R,2008,9,2,mg/kg,NR,ND (2),NR,NR
Abats,foie,R,2008,34,2,mg/kg,NR,ND (2),NR,NR
Abats,foie,R,2009,6,2,mg/kg,NR,ND (2),NR,NR
Charcuterie,"lard, bacon",R,2007,1,1,mg/kg,NR,10,NR,NR
Charcuterie,"lard, bacon",R,2008,1,2,mg/kg,NR,NQ (5),NR,NR
Charcuterie,"lard, bacon",R,2008,5,1,mg/kg,NR,ND (2),NR,NR
Charcuterie,"lard, bacon",R,2009,5,2,mg/kg,NR,NQ (5),NR,NR
Charcuterie,chipolata,R,2008,8,1,mg/kg,NR,ND (2),NR,NR
Charcuterie,chipolata,R,2008,8,2,mg/kg,NR,ND (2),NR,NR
Charcuterie,jambon cuit,R,2007,1,1,mg/kg,NR,5.4,NR,NR
Charcuterie,jambon cuit,R,2007,7,1,mg/kg,NR,ND (2),NR,NR
Charcuterie,jambon cuit,R,2007,34,1,mg/kg,NR,NQ (5),NR,NR
Charcuterie,jambon cuit,R,2008,1,2,mg/kg,NR,ND (2),NR,NR
Charcuterie,jambon cuit,R,2008,2,1,mg/kg,NR,5.8,NR,NR
Charcuterie,jambon cuit,R,2008,2,2,mg/kg,NR,ND (2),NR,NR
Charcuterie,jambon cuit,R,2008,5,1,mg/kg,NR,ND (2),NR,NR
Charcuterie,jambon cuit,R,2008,6,1,mg/kg,NR,ND (2),NR,NR
Charcuterie,jambon cuit,R,2008,7,2,mg/kg,NR,ND (2),NR,NR
Charcuterie,jambon cuit,R,2008,8,1,mg/kg,NR,NQ (5),NR,NR
Charcuterie,jambon cuit,R,2008,8,2,mg/kg,NR,ND (2),NR,NR
Charcuterie,jambon cuit,R,2008,9,1,mg/kg,NR,ND (2),NR,NR
Charcuterie,jambon cuit,R,2008,9,2,mg/kg,NR,NQ (5),NR,NR
Charcuterie,jambon cuit,R,2008,34,2,mg/kg,NR,NQ (5),NR,NR
Charcuterie,jambon cuit,R,2009,5,2,mg/kg,NR,NQ (5),NR,NR
Charcuterie,jambon cuit,R,2009,6,2,mg/kg,NR,NQ (5),NR,NR
Charcuterie,jambon cru,R,2007,7,1,mg/kg,NR,ND (2),NR,NR
Charcuterie,jambon cru,R,2007,34,1,mg/kg,NR,NQ (5),NR,NR
Charcuterie,jambon cru,R,2008,5,1,mg/kg,NR,ND (2),NR,NR
Charcuterie,jambon cru,R,2008,6,1,mg/kg,NR,ND (2),NR,NR
Charcuterie,jambon cru,R,2008,7,2,mg/kg,NR,ND (2),NR,NR
Charcuterie,jambon cru,R,2008,8,1,mg/kg,NR,ND (2),NR,NR
Charcuterie,jambon cru,R,2008,8,2,mg/kg,NR,ND (2),NR,NR
Charcuterie,jambon cru,R,2008,9,1,mg/kg,NR,ND (2),NR,NR
Charcuterie,jambon cru,R,2008,9,2,mg/kg,NR,ND (2),NR,NR
Charcuterie,jambon cru,R,2008,34,2,mg/kg,NR,ND (2),NR,NR
Charcuterie,jambon cru,R,2009,5,2,mg/kg,NR,ND (2),NR,NR
Charcuterie,jambon cru,R,2009,6,2,mg/kg,NR,ND (2),NR,NR
Charcuterie,saucisson sec,R,2007,1,1,mg/kg,NR,NQ (5),NR,NR
Charcuterie,saucisson sec,R,2007,7,1,mg/kg,NR,ND (2),NR,NR
Charcuterie,saucisson sec,R,2007,34,1,mg/kg,NR,NQ (5),NR,NR
Charcuterie,saucisson sec,R,2008,1,2,mg/kg,NR,ND (2),NR,NR
Charcuterie,saucisson sec,R,2008,2,1,mg/kg,NR,NQ (5),NR,NR
Charcuterie,saucisson sec,R,2008,2,2,mg/kg,NR,ND (2),NR,NR
Charcuterie,saucisson sec,R,2008,5,1,mg/kg,NR,ND (2),NR,NR
Charcuterie,saucisson sec,R,2008,6,1,mg/kg,NR,NQ (5),NR,NR
Charcuterie,saucisson sec,R,2008,7,2,mg/kg,NR,ND (2),NR,NR
Charcuterie,saucisson sec,R,2008,8,1,mg/kg,NR,ND (2),NR,NR
Charcuterie,saucisson sec,R,2008,8,2,mg/kg,NR,ND (2),NR,NR
Charcuterie,saucisson sec,R,2008,9,1,mg/kg,NR,NQ (5),NR,NR
Charcuterie,saucisson sec,R,2008,9,2,mg/kg,NR,ND (2),NR,NR
Charcuterie,saucisson sec,R,2008,34,2,mg/kg,NR,ND (2),NR,NR
Charcuterie,saucisson sec,R,2009,5,2,mg/kg,NR,ND (2),NR,NR
Charcuterie,saucisson sec,R,2009,6,2,mg/kg,NR,ND (2),NR,NR
Charcuterie,pâté,R,2007,1,1,mg/kg,NR,NQ (5),NR,NR
Charcuterie,pâté,R,2007,7,1,mg/kg,NR,ND (2),NR,NR
Charcuterie,pâté,R,2008,1,2,mg/kg,NR,ND (2),NR,NR
Charcuterie,pâté,R,2008,2,1,mg/kg,NR,NQ (5),NR,NR
Charcuterie,pâté,R,2008,2,2,mg/kg,NR,ND (2),NR,NR
Charcuterie,pâté,R,2008,5,1,mg/kg,NR,ND (2),NR,NR
Charcuterie,pâté,R,2008,6,1,mg/kg,NR,ND (2),NR,NR
Charcuterie,pâté,R,2008,7,2,mg/kg,NR,ND (2),NR,NR
Charcuterie,pâté,R,2008,8,1,mg/kg,NR,ND (2),NR,NR
Charcuterie,pâté,R,2008,8,2,mg/kg,NR,ND (2),NR,NR
Charcuterie,pâté,R,2008,9,1,mg/kg,NR,ND (2),NR,NR
Charcuterie,pâté,R,2008,9,2,mg/kg,NR,ND (2),NR,NR
Charcuterie,pâté,R,2009,5,2,mg/kg,NR,NQ (5),NR,NR
Charcuterie,pâté,R,2009,6,2,mg/kg,NR,NQ (5),NR,NR
Légumes (hors pomme de terre),carotte,R,2007,1,1,mg/kg,NR,NR,NR,NQ (20)
Légumes (hors pomme de terre),carotte,R,2007,7,1,mg/kg,NR,NR,NR,NQ (30)
Légumes (hors pomme de terre),carotte,R,2007,34,1,mg/kg,NR,NR,NR,ND (10)
Légumes (hors pomme de terre),carotte,R,2008,1,2,mg/kg ,NR,NR,NR,NQ (30)
Légumes (hors pomme de terre),carotte,R,2008,5,1,mg/kg,NR,NR,NR,NQ (30)
Légumes (hors pomme de terre),carotte,R,2008,6,1,mg/kg,ND (1),NR,NR,ND (10)
Légumes (hors pomme de terre),carotte,R,2008,7,2,mg/kg,NR,NR,NR,ND (10)
Légumes (hors pomme de terre),carotte,R,2008,8,1,mg/kg,ND (1),NR,NR,ND (10)
Légumes (hors pomme de terre),carotte,R,2008,8,2,mg/kg ,NR,NR,NR,NQ (30)
Légumes (hors pomme de terre),carotte,R,2008,9,1,mg/kg,ND (1),NR,NR,ND (10)
Légumes (hors pomme de terre),carotte,R,2008,9,2,mg/kg,NR,NR,NR,NQ (30)
Légumes (hors pomme de terre),carotte,R,2008,34,2,mg/kg,NR,NR,NR,NQ (20)
Légumes (hors pomme de terre),carotte,R,2009,5,2,mg/kg,NR,NR,NR,NQ (30)
Légumes (hors pomme de terre),carotte,R,2009,6,2,mg/kg ,NR,NR,NR,NQ (30)
Légumes (hors pomme de terre),épinard,R,2008,6,1,mg/kg,ND (1),NR,NR,ND (10)
Légumes (hors pomme de terre),épinard,R,2008,9,1,mg/kg,ND (1),NR,NR,ND (10)
Légumes (hors pomme de terre),épinard,R,2008,9,2,mg/kg,ND (1),NR,NR,NQ (30)
Légumes (hors pomme de terre),épinard,R,2009,6,2,mg/kg ,ND (1),NR,NR,ND (10)
Légumes (hors pomme de terre),haricot,R,2007,1,1,mg/kg,NR,NR,NR,NQ (20)
Légumes (hors pomme de terre),haricot,R,2007,7,1,mg/kg,NR,NR,NR,ND (10)
Légumes (hors pomme de terre),haricot,R,2007,34,1,mg/kg,NR,NR,NR,ND (10)
Légumes (hors pomme de terre),haricot,R,2008,1,2,mg/kg ,NR,NR,NR,ND (10)
Légumes (hors pomme de terre),haricot,R,2008,2,1,mg/kg,NR,NR,NR,NQ (20)
Légumes (hors pomme de terre),haricot,R,2008,2,2,mg/kg ,NR,NR,NR,ND (10)
Légumes (hors pomme de terre),haricot,R,2008,5,1,mg/kg,NR,NR,NR,70
Légumes (hors pomme de terre),haricot,R,2008,6,1,mg/kg,ND (1),NR,NR,ND (10)
Légumes (hors pomme de terre),haricot,R,2008,7,2,mg/kg,NR,NR,NR,ND (10)
Légumes (hors pomme de terre),haricot,R,2008,8,1,mg/kg,ND (1),NR,NR,ND (10)
Légumes (hors pomme de terre),haricot,R,2008,8,2,mg/kg ,NR,NR,NR,ND (10)
Légumes (hors pomme de terre),haricot,R,2008,9,1,mg/kg,ND (1),NR,NR,ND (10)
Légumes (hors pomme de terre),haricot,R,2008,9,2,mg/kg,NR,NR,NR,80
Légumes (hors pomme de terre),haricot,R,2008,34,2,mg/kg,NR,NR,NR,ND (10)
Légumes (hors pomme de terre),haricot,R,2009,5,2,mg/kg,NR,NR,NR,90
Légumes (hors pomme de terre),haricot,R,2009,6,2,mg/kg ,NR,NR,NR,ND (10)
Légumes (hors pomme de terre),maïs,R,2007,1,1,mg/kg,NR,NR,NR,NQ (20)
Légumes (hors pomme de terre),maïs,R,2007,7,1,mg/kg,NR,NR,NR,ND (10)
Légumes (hors pomme de terre),maïs,R,2007,34,1,mg/kg,NR,NR,NR,ND (10)
Légumes (hors pomme de terre),maïs,R,2008,1,2,mg/kg ,NR,NR,NR,ND (10)
Légumes (hors pomme de terre),maïs,R,2008,2,1,mg/kg,NR,NR,NR,NQ (20)
Légumes (hors pomme de terre),maïs,R,2008,2,2,mg/kg ,NR,NR,NR,ND (10)
Légumes (hors pomme de terre),maïs,R,2008,5,1,mg/kg,NR,NR,NR,ND (10)
Légumes (hors pomme de terre),maïs,R,2008,6,1,mg/kg,ND (1),NR,NR,ND (10)
Légumes (hors pomme de terre),maïs,R,2008,7,2,mg/kg,NR,NR,NR,ND (10)
Légumes (hors pomme de terre),maïs,R,2008,8,1,mg/kg,ND (1),NR,NR,ND (10)
Légumes (hors pomme de terre),maïs,R,2008,8,2,mg/kg ,NR,NR,NR,ND (10)
Légumes (hors pomme de terre),maïs,R,2008,9,1,mg/kg,ND (1),NR,NR,ND (10)
Légumes (hors pomme de terre),maïs,R,2008,9,2,mg/kg,NR,NR,NR,ND (10)
Légumes (hors pomme de terre),maïs,R,2008,34,2,mg/kg,NR,NR,NR,ND (10)
Légumes (hors pomme de terre),maïs,R,2009,5,2,mg/kg,NR,NR,NR,ND (10)
Légumes (hors pomme de terre),maïs,R,2009,6,2,mg/kg ,NR,NR,NR,ND (10)
Légumes (hors pomme de terre),petit pois,R,2007,1,1,mg/kg,NR,NR,NR,NQ (20)
Légumes (hors pomme de terre),petit pois,R,2007,7,1,mg/kg,NR,NR,NR,ND (10)
Légumes (hors pomme de terre),petit pois,R,2007,34,1,mg/kg,NR,NR,NR,ND (10)
Légumes (hors pomme de terre),petit pois,R,2008,1,2,mg/kg ,NR,NR,NR,NQ (30)
Légumes (hors pomme de terre),petit pois,R,2008,5,1,mg/kg,NR,NR,NR,NQ (30)
Légumes (hors pomme de terre),petit pois,R,2008,6,1,mg/kg,ND (1),NR,NR,ND (10)
Légumes (hors pomme de terre),petit pois,R,2008,7,2,mg/kg,NR,NR,NR,ND (10)
Légumes (hors pomme de terre),petit pois,R,2008,8,1,mg/kg,ND (1),NR,NR,ND (10)
Légumes (hors pomme de terre),petit pois,R,2008,8,2,mg/kg ,NR,NR,NR,NQ (30)
Légumes (hors pomme de terre),petit pois,R,2008,9,1,mg/kg,ND (1),NR,NR,ND (10)
Légumes (hors pomme de terre),petit pois,R,2008,9,2,mg/kg,NR,NR,NR,NQ (30)
Légumes (hors pomme de terre),petit pois,R,2008,34,2,mg/kg,NR,NR,NR,ND (10)
Légumes (hors pomme de terre),petit pois,R,2009,5,2,mg/kg,NR,NR,NR,NQ (30)
Légumes (hors pomme de terre),petit pois,R,2009,6,2,mg/kg ,NR,NR,NR,NQ (30)
Pommes de terre et apparentés,pomme de terre sautée ou frite,R,2007,1,1,mg/kg,NQ (5),NR,"ND (0,25)",NR
Pommes de terre et apparentés,pomme de terre sautée ou frite,R,2007,7,1,mg/kg,NQ (5),NR,"ND (2,5)",NR
Pommes de terre et apparentés,pomme de terre sautée ou frite,R,2007,34,1,mg/kg,NQ (5),NR,"ND (2,5)",NR
Pommes de terre et apparentés,pomme de terre sautée ou frite,R,2008,1,2,mg/kg ,ND (1),NR,"ND (2,5)",NR
Pommes de terre et apparentés,pomme de terre sautée ou frite,R,2008,2,1,mg/kg,NQ (5),NR,"ND (0,25)",NR
Pommes de terre et apparentés,pomme de terre sautée ou frite,R,2008,2,2,mg/kg ,ND (1),NR,"ND (2,5)",NR
Pommes de terre et apparentés,pomme de terre sautée ou frite,R,2008,5,1,mg/kg,ND (1),NR,"ND (2,5)",NR
Pommes de terre et apparentés,pomme de terre sautée ou frite,R,2008,6,1,mg/kg,ND (1),NR,"ND (0,25)",NR
Pommes de terre et apparentés,pomme de terre sautée ou frite,R,2008,7,2,mg/kg,ND (1),NR,"ND (0,25)",NR
Pommes de terre et apparentés,pomme de terre sautée ou frite,R,2008,9,1,mg/kg,ND (1),NR,"ND (0,25)",NR
Pommes de terre et apparentés,pomme de terre sautée ou frite,R,2008,9,2,mg/kg,ND (1),NR,"ND (2,5)",NR
Pommes de terre et apparentés,pomme de terre sautée ou frite,R,2008,34,2,mg/kg,ND (1),NR,"ND (0,25)",NR
Pommes de terre et apparentés,pomme de terre sautée ou frite,R,2009,5,2,mg/kg,ND (1),NR,"ND (2,5)",NR
Légumes secs,lentille,R,2007,1,1,mg/kg,ND (1),NR,NR,NQ (20)
Légumes secs,lentille,R,2007,7,1,mg/kg,ND (1),NR,NR,NQ (30)
Légumes secs,lentille,R,2007,34,1,mg/kg,ND (1),NR,NR,ND (10)
Légumes secs,lentille,R,2008,1,2,mg/kg ,ND (1),NR,NR,50
Légumes secs,lentille,R,2008,2,1,mg/kg,ND (1),NR,NR,NQ (20)
Légumes secs,lentille,R,2008,2,2,mg/kg ,ND (1),NR,NR,50
Légumes secs,lentille,R,2008,5,1,mg/kg,ND (1),NR,NR,32
Légumes secs,lentille,R,2008,6,1,mg/kg,ND (1),NR,NR,ND (10)
Légumes secs,lentille,R,2008,7,2,mg/kg,ND (1),NR,NR,ND (10)
Légumes secs,lentille,R,2008,8,1,mg/kg,ND (1),NR,NR,ND (10)
Légumes secs,lentille,R,2008,8,2,mg/kg ,ND (1),NR,NR,50
Légumes secs,lentille,R,2008,9,1,mg/kg,ND (1),NR,NR,ND (10)
Légumes secs,lentille,R,2008,9,2,mg/kg,ND (1),NR,NR,30
Légumes secs,lentille,R,2008,34,2,mg/kg,ND (1),NR,NR,ND (10)
Légumes secs,lentille,R,2009,5,2,mg/kg,ND (1),NR,NR,32
Légumes secs,lentille,R,2009,6,2,mg/kg ,ND (1),NR,NR,50
Glaces et desserts glacés,glace,N,2007,99,1,mg/kg,NR,NR,ND (5),NR
Glaces et desserts glacés,glace,N,2008,99,2,mg/kg,NR,NR,ND (5),NR
Chocolat,chocolat noir,N,2007,99,1,mg/l,NR,NR,NR,ND (50)
Chocolat,chocolat noir,N,2008,99,2,mg/kg,NR,NR,NR,ND (300)
Sucres et dérivés,confiture,N,2007,99,1,mg/kg,ND (1),NR,NR,NQ (20)
Sucres et dérivés,confiture,N,2008,99,2,mg/kg,ND (1),NR,NR,ND (10)
Sucres et dérivés,sucre,N,2007,99,1,mg/kg,ND (3),NR,NR,NR
Sucres et dérivés,sucre,N,2008,99,2,mg/kg,641,NR,NR,NR
Boissons alcoolisées,bière,N,2007,99,1,mg/l,ND (1),NR,NR,NR
Boissons alcoolisées,bière,N,2008,99,2,mg/l,ND (1),NR,NR,NR
Boissons alcoolisées,cidre,N,2007,99,1,mg/l,44,NR,NR,NR
Boissons alcoolisées,cidre,N,2008,99,2,mg/l,36,NR,NR,NR
Boissons alcoolisées,vin,N,2007,99,1,mg/l,95,NR,NR,NR
Boissons alcoolisées,vin,N,2008,99,2,mg/l,89,NR,NR,NR
Autres boissons chaudes,boisson au chocolat,R,2007,34,1,mg/l,NR,NR,NR,ND (50)
Autres boissons chaudes,boisson au chocolat,R,2008,5,1,mg/l,NR,NR,NR,ND (50)
Autres boissons chaudes,boisson au chocolat,R,2008,34,2,mg/l,NR,NR,NR,ND (50)
Autres boissons chaudes,boisson au chocolat,R,2009,5,2,mg/l,NR,NR,NR,ND (50)
"Sandwiches, casse-croûte",hamburger,R,2007,34,1,mg/kg,NR,ND (2),"ND (0,25)",NR
"Sandwiches, casse-croûte",hamburger,R,2008,5,1,mg/kg,NR,ND (1),"ND (2,5)",NR
"Sandwiches, casse-croûte",hamburger,R,2008,34,2,mg/kg,NR,ND (2),"ND (0,25)",NR
"Sandwiches, casse-croûte",hamburger,R,2009,5,2,mg/kg,NR,ND (1),"ND (2,5)",NR
"Sandwiches, casse-croûte",sandwich,R,2008,5,1,mg/kg,NR,NQ (2),"ND (2,5)",NR
"Sandwiches, casse-croûte",sandwich,R,2009,5,2,mg/kg,NR,NR,"ND (2,5)",NR
Plats composés,pâtes fourrées type ravioli,R,2007,1,1,mg/kg,NQ (5),NR,NR,NR
Plats composés,pâtes fourrées type ravioli,R,2007,7,1,mg/kg,NR,ND (2),NR,NR
Plats composés,pâtes fourrées type ravioli,R,2007,34,1,mg/kg,NR,ND (2),NR,NR
Plats composés,pâtes fourrées type ravioli,R,2008,8,1,mg/kg,NR,ND (1),NR,NR
Plats composés,pâtes fourrées type ravioli,R,2008,9,1,mg/kg,NR,ND (1),NR,NR
Plats composés,pâtes fourrées type ravioli,R,2008,1,2,mg/kg ,NR,ND (1),NR,NR
Plats composés,pâtes fourrées type ravioli,R,2008,2,1,mg/kg,ND (1),NR,NR,NR
Plats composés,pâtes fourrées type ravioli,R,2008,2,2,mg/kg ,NR,ND (1),NR,NR
Plats composés,pâtes fourrées type ravioli,R,2008,5,1,mg/kg,NR,NQ (2),NR,NR
Plats composés,pâtes fourrées type ravioli,R,2008,6,1,mg/kg,NR,ND (1),NR,NR
Plats composés,pâtes fourrées type ravioli,R,2008,7,2,mg/kg,NR,ND (1),NR,NR
Plats composés,pâtes fourrées type ravioli,R,2008,8,2,mg/kg ,NR,ND (1),NR,NR
Plats composés,pâtes fourrées type ravioli,R,2008,9,2,mg/kg,NR,NQ (2),NR,NR
Plats composés,pâtes fourrées type ravioli,R,2008,34,2,mg/kg,NR,ND (1),NR,NR
Plats composés,pâtes fourrées type ravioli,R,2009,5,2,mg/kg,NR,NQ (2),NR,NR
Plats composés,pâtes fourrées type ravioli,R,2009,6,2,mg/kg ,NR,ND (1),NR,NR
Compotes et fruits cuits,fruits au sirop,N,2007,99,1,mg/kg,ND (1),NR,NR,NR
Compotes et fruits cuits,fruits au sirop,N,2007,99,1,mg/l,NR,NR,NR,ND (50)
Compotes et fruits cuits,fruits au sirop,N,2008,99,2,mg/kg,ND (1),NR,NR,NR
Fruits secs et graines oléagineuses,fruit séché,N,2007,99,1,mg/kg,55,NR,ND (9),NR
Fruits secs et graines oléagineuses,fruit séché,N,2008,99,2,mg/kg,73,NR,NR,NR
